^C:\USERS\BLUET87\DOWNLOADS\OF_V0.11.0_VS2017_RELEASE\APPS\MYAPPS\GMC-FINAL-SIMPLIFIED\ICON.RC
/D _UNICODE /D UNICODE /l"0x0409" /IC:\USERS\BLUET87\DOWNLOADS\OF_V0.11.0_VS2017_RELEASE\LIBS\OPENFRAMEWORKSCOMPILED\PROJECT\VS\\..\..\..\..\\LIBS\OPENFRAMEWORKSCOMPILED\PROJECT\VS /nologo /fo"OBJ\WIN32\DEBUG\ICON.RES" /D_DEBUG    C:\USERS\BLUET87\DOWNLOADS\OF_V0.11.0_VS2017_RELEASE\APPS\MYAPPS\GMC-FINAL-SIMPLIFIED\ICON.RC
^C:\USERS\BLUET87\DOWNLOADS\OF_V0.11.0_VS2017_RELEASE\APPS\MYAPPS\GMC-FINAL-SIMPLIFIED - COPY\ICON.RC
/D _UNICODE /D UNICODE /l"0x0409" /IC:\USERS\BLUET87\DOWNLOADS\OF_V0.11.0_VS2017_RELEASE\LIBS\OPENFRAMEWORKSCOMPILED\PROJECT\VS\\..\..\..\..\\LIBS\OPENFRAMEWORKSCOMPILED\PROJECT\VS /nologo /fo"OBJ\WIN32\DEBUG\ICON.RES" /D_DEBUG    C:\USERS\BLUET87\DOWNLOADS\OF_V0.11.0_VS2017_RELEASE\APPS\MYAPPS\GMC-FINAL-SIMPLIFIED - COPY\ICON.RC
